{
    "type": "FeatureCollection",
    "features": [
      {
        "type": "Feature",
        "properties": {
            "id":0,
            "type":"restricted",
            "name":"restricted-0",
            "weight":8
        },
        "geometry": {
          "coordinates": [
            [
              [
                46.67438638442468,
                24.69558636591522
              ],
              [
                46.66760704593477,
                24.695585571354428
              ],
              [
                46.670731009808435,
                24.68492582432573
              ],
              [
                46.67768802537,
                24.680907176766013
              ],
              [
                46.69124962257868,
                24.681121818193134
              ],
              [
                46.695083257966445,
                24.684711205212594
              ],
              [
                46.69809070471939,
                24.688997429962
              ],
              [
                46.69107288510884,
                24.702711468390234
              ],
              [
                46.67438638442468,
                24.69558636591522
              ]
            ]
          ],
          "type": "Polygon"
        }
      },
      {
        "type": "Feature",
        "properties": {            
            "id":1,
            "type":"restricted",
            "name":"restricted-1",
            "weight":2
    },
        "geometry": {
          "coordinates": [
            [
              [
                46.721138302952454,
                24.68614718957808
              ],
              [
                46.71747212117728,
                24.663880578694744
              ],
              [
                46.74062749930505,
                24.67278978517946
              ],
              [
                46.75299940574186,
                24.670228922317094
              ],
              [
                46.76125983274886,
                24.68101905138232
              ],
              [
                46.75903720224434,
                24.695468785954205
              ],
              [
                46.735825886161365,
                24.693820443956866
              ],
              [
                46.721138302952454,
                24.68614718957808
              ]
            ]
          ],
          "type": "Polygon"
        }
      },
      {
        "type": "Feature",
        "properties": {
            "id":2,
            "type":"restricted",
            "name":"restricted-2",
            "weight":7
        },
        "geometry": {
          "coordinates": [
            [
              [
                46.686470150075934,
                24.636494839567476
              ],
              [
                46.69970333637201,
                24.653184834144042
              ],
              [
                46.74579763944641,
                24.645828876786922
              ],
              [
                46.6988452154026,
                24.66153993476543
              ],
              [
                46.68217980270367,
                24.64829195809024
              ],
              [
                46.686470150075934,
                24.636494839567476
              ]
            ]
          ],
          "type": "Polygon"
        }
      },
      {
        "type": "Feature",
        "properties": {
            "id":3,
            "type":"restricted",
            "name":"restricted-3",
            "weight":3
        },
        "geometry": {
          "coordinates": [
            [
              [
                46.631812904914625,
                24.683012948687193
              ],
              [
                46.6271787200119,
                24.673677370210072
              ],
              [
                46.64852164873031,
                24.671009178985756
              ],
              [
                46.651198980910294,
                24.685142507674
              ],
              [
                46.640950882843924,
                24.692471870173264
              ],
              [
                46.631812904914625,
                24.683012948687193
              ]
            ]
          ],
          "type": "Polygon"
        }
      },
      {
        "type": "Feature",
        "properties": {
            "id":4,
            "type":"forbidden",
            "name":"forbidden-4",
            "weight":33
        },
        "geometry": {
          "coordinates": [
            [
              [
                46.700395171196675,
                24.751277832362703
              ],
              [
                46.68895309659075,
                24.734564492882228
              ],
              [
                46.725989457054794,
                24.733334734899287
              ],
              [
                46.74362667915602,
                24.738250178143005
              ],
              [
                46.72519703238976,
                24.756146601097953
              ],
              [
                46.700395171196675,
                24.751277832362703
              ]
            ]
          ],
          "type": "Polygon"
        }
      },
      {
        "type": "Feature",
        "properties": {
            "id":5,
            "type":"forbidden",
            "name":"forbidden-5",
            "weight":19
        },
        "geometry": {
          "coordinates": [
            [
              [
                46.64423439262464,
                24.71903897927622
              ],
              [
                46.66779257876584,
                24.71903897927622
              ],
              [
                46.66779257876584,
                24.74191857619668
              ],
              [
                46.64423439262464,
                24.74191857619668
              ],
              [
                46.64423439262464,
                24.71903897927622
              ]
            ]
          ],
          "type": "Polygon"
        }
      },
      {
        "type": "Feature",
        "properties": {
            "id":6,
            "type":"forbidden",
            "name":"forbidden-6",
            "weight":15
        },
        "geometry": {
          "type": "Polygon",
          "coordinates": [
            [
              [
                46.78945571812204,
                24.720611790270922
              ],
              [
                46.788386593421365,
                24.72056407703439
              ],
              [
                46.787327767415235,
                24.720421396938484
              ],
              [
                46.78628943952237,
                24.720185124393748
              ],
              [
                46.78528161156946,
                24.719857535358823
              ],
              [
                46.78431399138504,
                24.71944178540152
              ],
              [
                46.783395899234925,
                24.718941879281857
              ],
              [
                46.782536178003234,
                24.718362632350885
              ],
              [
                46.781743107986195,
                24.7177096241385
              ],
              [
                46.78102432712109,
                24.71698914457856
              ],
              [
                46.78038675741951,
                24.716208133390793
              ],
              [
                46.77983653831398,
                24.715374113204902
              ],
              [
                46.77937896755926,
                24.71449511707263
              ],
              [
                46.77901845025653,
                24.71357961106732
              ],
              [
                46.778758456489726,
                24.712636412718
              ],
              [
                46.778601487979515,
                24.711674606064594
              ],
              [
                46.77854905407358,
                24.710703454153577
              ],
              [
                46.778601657300776,
                24.709732309817365
              ],
              [
                46.7787587886253,
                24.708770525597274
              ],
              [
                46.77901893244266,
                24.70782736367767
              ],
              [
                46.77937958126579,
                24.706911906698522
              ],
              [
                46.77983725995652,
                24.706032970304793
              ],
              [
                46.78038755926573,
                24.70519901827412
              ],
              [
                46.781025178356515,
                24.70441808103907
              ],
              [
                46.781743975898316,
                24.703697678387393
              ],
              [
                46.78253702923867,
                24.703044747083265
              ],
              [
                46.783396701081166,
                24.702465574105013
              ],
              [
                46.7843147130276,
                24.70196573614056
              ],
              [
                46.78528222527601,
                24.701550045921813
              ],
              [
                46.78628992170851,
                24.701222505913048
              ],
              [
                46.78732809955083,
                24.70098626979804
              ],
              [
                46.78838676274262,
                24.700843612135444
              ],
              [
                46.78945571812204,
                24.70079590647371
              ],
              [
                46.79052467350147,
                24.700843612135444
              ],
              [
                46.79158333669327,
                24.70098626979804
              ],
              [
                46.79262151453559,
                24.701222505913048
              ],
              [
                46.793629210968085,
                24.701550045921813
              ],
              [
                46.7945967232165,
                24.70196573614056
              ],
              [
                46.79551473516293,
                24.702465574105013
              ],
              [
                46.79637440700543,
                24.703044747083265
              ],
              [
                46.797167460345776,
                24.703697678387393
              ],
              [
                46.79788625788758,
                24.70441808103907
              ],
              [
                46.79852387697836,
                24.70519901827412
              ],
              [
                46.799074176287576,
                24.706032970304793
              ],
              [
                46.7995318549783,
                24.706911906698522
              ],
              [
                46.79989250380143,
                24.70782736367767
              ],
              [
                46.80015264761879,
                24.708770525597274
              ],
              [
                46.80030977894332,
                24.709732309817365
              ],
              [
                46.80036238217051,
                24.710703454153577
              ],
              [
                46.80030994826457,
                24.711674606064594
              ],
              [
                46.800152979754365,
                24.712636412718
              ],
              [
                46.799892985987555,
                24.71357961106732
              ],
              [
                46.79953246868484,
                24.71449511707263
              ],
              [
                46.79907489793012,
                24.715374113204902
              ],
              [
                46.79852467882459,
                24.716208133390793
              ],
              [
                46.797887109123,
                24.71698914457856
              ],
              [
                46.79716832825789,
                24.7177096241385
              ],
              [
                46.79637525824086,
                24.718362632350885
              ],
              [
                46.795515537009166,
                24.718941879281857
              ],
              [
                46.79459744485905,
                24.71944178540152
              ],
              [
                46.79362982467463,
                24.719857535358823
              ],
              [
                46.79262199672173,
                24.720185124393748
              ],
              [
                46.79158366882886,
                24.720421396938484
              ],
              [
                46.790524842822734,
                24.72056407703439
              ],
              [
                46.78945571812204,
                24.720611790270922
              ]
            ]
          ]
        }
      },
      {
        "type": "Feature",
        "properties": {
            "id":7,
            "type":"forbidden",
            "name":"forbidden-7",
            "weight":13
        },
        "geometry": {
          "type": "Polygon",
          "coordinates": [
            [
              [
                46.73012455144657,
                24.607569759440203
              ],
              [
                46.72918378149894,
                24.60752773682145
              ],
              [
                46.728252073560796,
                24.607402073750205
              ],
              [
                46.727338402297256,
                24.607193980679956
              ],
              [
                46.726451568528525,
                24.60690546206575
              ],
              [
                46.72560011440918,
                24.606539297044627
              ],
              [
                46.724792241106385,
                24.606099012650038
              ],
              [
                46.72403572977209,
                24.60558884981906
              ],
              [
                46.72333786657207,
                24.60501372252072
              ],
              [
                46.72270537249513,
                24.604379170400183
              ],
              [
                46.722144338619216,
                24.603691305396058
              ],
              [
                46.72166016745818,
                24.60295675284626
              ],
              [
                46.72125752095379,
                24.602182587650766
              ],
              [
                46.72094027561287,
                24.60137626610738
              ],
              [
                46.72071148522064,
                24.600545554077968
              ],
              [
                46.7205733514872,
                24.599698452178096
              ],
              [
                46.720527202907974,
                24.59884311871113
              ],
              [
                46.720573482039,
                24.5979877910898
              ],
              [
                46.7207117413072,
                24.597140706502195
              ],
              [
                46.72094064739293,
                24.59631002258638
              ],
              [
                46.721257994140046,
                24.59550373887753
              ],
              [
                46.72166072386637,
                24.59472961978355
              ],
              [
                46.72214495686686,
                24.593995119830588
              ],
              [
                46.72270602882333,
                24.59330731189736
              ],
              [
                46.72333853575851,
                24.592672819128577
              ],
              [
                46.724036386100295,
                24.592097751181992
              ],
              [
                46.72479285935404,
                24.591587645421914
              ],
              [
                46.72560067081737,
                24.591147413624167
              ],
              [
                46.72645204171479,
                24.59078129470456
              ],
              [
                46.727338774077325,
                24.59049281392489
              ],
              [
                46.72825232964736,
                24.590284748968237
              ],
              [
                46.72918391205073,
                24.590159103209263
              ],
              [
                46.73012455144657,
                24.590117086436145
              ],
              [
                46.731065190842415,
                24.590159103209263
              ],
              [
                46.73199677324579,
                24.590284748968237
              ],
              [
                46.732910328815834,
                24.59049281392489
              ],
              [
                46.73379706117836,
                24.59078129470456
              ],
              [
                46.73464843207578,
                24.591147413624167
              ],
              [
                46.73545624353911,
                24.591587645421914
              ],
              [
                46.736212716792856,
                24.592097751181992
              ],
              [
                46.73691056713465,
                24.592672819128577
              ],
              [
                46.737543074069826,
                24.59330731189736
              ],
              [
                46.73810414602629,
                24.593995119830588
              ],
              [
                46.73858837902678,
                24.59472961978355
              ],
              [
                46.738991108753105,
                24.59550373887753
              ],
              [
                46.73930845550022,
                24.59631002258638
              ],
              [
                46.73953736158595,
                24.597140706502195
              ],
              [
                46.73967562085416,
                24.5979877910898
              ],
              [
                46.73972189998518,
                24.59884311871113
              ],
              [
                46.739675751405954,
                24.599698452178096
              ],
              [
                46.73953761767251,
                24.600545554077968
              ],
              [
                46.73930882728028,
                24.60137626610738
              ],
              [
                46.73899158193935,
                24.602182587650766
              ],
              [
                46.73858893543497,
                24.60295675284626
              ],
              [
                46.738104764273935,
                24.603691305396058
              ],
              [
                46.73754373039802,
                24.604379170400183
              ],
              [
                46.73691123632108,
                24.60501372252072
              ],
              [
                46.73621337312106,
                24.60558884981906
              ],
              [
                46.735456861786766,
                24.606099012650038
              ],
              [
                46.73464898848396,
                24.606539297044627
              ],
              [
                46.733797534364626,
                24.60690546206575
              ],
              [
                46.732910700595895,
                24.607193980679956
              ],
              [
                46.731997029332355,
                24.607402073750205
              ],
              [
                46.73106532139422,
                24.60752773682145
              ],
              [
                46.73012455144657,
                24.607569759440203
              ]
            ]
          ]
        }
      },
      {
        "type": "Feature",
        "properties": {
            "id":8,
            "type":"restricted",
            "name":"restricted-8",
            "weight":7
        },
        "geometry": {
          "coordinates": [
            [
              [
                46.804348324496885,
                24.667359985987275
              ],
              [
                46.804348324496885,
                24.64864346846987
              ],
              [
                46.8314794567504,
                24.64864346846987
              ],
              [
                46.8314794567504,
                24.667359985987275
              ],
              [
                46.804348324496885,
                24.667359985987275
              ]
            ]
          ],
          "type": "Polygon"
        }
      }
    ]
  }